{
    "registrations": [
      {
        "id": 1,
        "name": "Create Dev (Angular)",
        "tag": "app-create-dev-ce",
        "url": "/assets/apps/app-create-dev/main.js"
      },
      {
        "id": 2,
        "name": "Devs (Angular)",
        "tag": "app-dev-list-ce",
        "url": "/assets/apps/app-dev-list/main.js"
      },
      {
        "id": 3,
        "name": "Rating (React)",
        "tag": "app-rating-ce",
        "url": "/assets/apps/app-rating/bundle.js"
      }
    ]
}
